<?xml version="1.0" encoding="utf-8"?>
<!-- Generator: Adobe Illustrator 19.0.0, SVG Export Plug-In . SVG Version: 6.00 Build 0)  -->
<svg version="1.1" id="Layer_1" xmlns="http://www.w3.org/2000/svg" xmlns:xlink="http://www.w3.org/1999/xlink" x="0px" y="0px"
	 viewBox="0 0 310.5 51.2" style="enable-background:new 0 0 310.5 51.2;" xml:space="preserve">
<g id="XMLID_3_">
	<path id="XMLID_4_" d="M98.3,36l0.1,0.2c0,4.9-1.3,8.6-3.8,11.1c-2.5,2.6-6,3.8-10.4,3.8c-4.6,0-8.2-1.6-10.9-4.9
		c-2.7-3.2-4-7.8-4-13.8V18.7c0-5.9,1.4-10.6,4.1-13.8S79.6,0,84.2,0c4.4,0,7.9,1.3,10.4,3.8c2.5,2.5,3.7,6.2,3.8,11.2l-0.1,0.2
		h-3.8c-0.1-3.9-1-6.9-2.7-8.7c-1.7-1.9-4.2-2.8-7.6-2.8c-3.4,0-6.1,1.3-8,3.9c-1.9,2.6-2.9,6.3-2.9,11.2v13.9c0,5,1,8.7,2.9,11.3
		c1.9,2.6,4.6,3.9,8,3.9c3.3,0,5.8-0.9,7.6-2.8c1.7-1.8,2.6-4.8,2.7-8.9H98.3z"/>
	<path id="XMLID_6_" d="M111.4,28v22.5h-4.1V0.8h14.3c4.5,0,7.9,1.2,10.3,3.5c2.4,2.3,3.6,5.8,3.6,10.2c0,2.6-0.6,5-1.9,7
		c-1.3,2.1-3,3.6-5.3,4.6c2.5,0.8,4.3,2.2,5.5,4.2c1.1,2,1.7,4.5,1.7,7.5v4.7c0,1.6,0.1,2.9,0.4,4.2c0.3,1.2,0.8,2.2,1.5,3v0.8h-4.2
		c-0.7-0.8-1.2-2-1.5-3.4c-0.3-1.5-0.4-3-0.4-4.7v-4.6c0-3-0.8-5.4-2.3-7.2c-1.5-1.8-3.6-2.7-6.3-2.7H111.4z M111.4,24.5h9.7
		c3.5,0,6.1-0.9,7.7-2.7c1.6-1.8,2.4-4.2,2.4-7.3c0-3.3-0.8-5.8-2.4-7.5c-1.6-1.8-4-2.6-7.3-2.6h-10.2V24.5z"/>
	<path id="XMLID_9_" d="M168.5,36.7h-18.1l-4.2,13.8h-4.2l15.8-49.8h3.7l15.6,49.8h-4.2L168.5,36.7z M151.5,32.9h15.9l-7.8-25.6
		h-0.2L151.5,32.9z"/>
	<path id="XMLID_13_" d="M196.4,21.9l11-21.2h5l-13.5,24.5l13.9,25.2h-4.9l-11.4-21.8l-11.4,21.8h-5l13.9-25.2L180.5,0.7h5
		L196.4,21.9z"/>
	<path id="XMLID_18_" d="M250.8,50.5h-4.1V27.5h-22.4v22.9h-4.1V0.7h4.1v23.3h22.4V0.7h4.1V50.5z"/>
	<path id="XMLID_20_" d="M293.4,0.7v33.9c0,5.3-1.6,9.4-4.7,12.3c-3.1,2.9-7.2,4.3-12.2,4.3c-5,0-9.1-1.4-12.2-4.3
		c-3.1-2.9-4.7-7-4.7-12.3V0.7h9.7v33.9c0,3,0.6,5.3,1.9,6.7c1.3,1.4,3,2.2,5.3,2.2c2.3,0,4.1-0.7,5.4-2.1s1.8-3.6,1.8-6.8V0.7
		H293.4z"/>
	<path id="XMLID_22_" d="M310.5,50.5h-9.7V0.7h9.7V50.5z"/>
</g>
<path id="XMLID_2_" d="M47,4.8v41.7H24V4.8H47 M51,0.8H0v49.7h51V0.8L51,0.8z"/>
</svg>
